2024-03-06 20-50-01-174 - Off.webp	01581-dated-bone-ring.webp
2024-03-06 20-52-50-291 - Off.webp	01582-dated-copper-ring.webp
2024-03-06 20-52-54-775 - Off.webp	01584-dated-silver-ring.webp
2024-03-06 20-52-57-191 - Off.webp	01585-dated-sunstone-ring.webp
2024-03-06 20-52-59-610 - Off.webp	01586-dated-lapis-lazuli-ring.webp
2024-03-06 20-53-01-908 - Off.webp	01587-dated-sphene-ring.webp
2024-03-06 20-53-04-241 - Off.webp	01588-dated-malachite-ring.webp
2024-03-06 20-53-06-641 - Off.webp	01589-dated-fluorite-ring.webp
2024-03-06 20-53-08-893 - Off.webp	01590-dated-danburite-ring.webp
2024-03-06 20-53-11-326 - Off.webp	01591-dated-pearl-ring.webp
2024-03-06 20-54-47-842 - Off.webp	01592-dated-black-pearl-ring.webp
2024-03-06 20-54-52-542 - Off.webp	01594-dated-garnet-ring.webp
2024-03-06 20-54-54-892 - Off.webp	01595-dated-aquamarine-ring.webp
2024-03-06 20-54-57-308 - Off.webp	01596-dated-heliodor-ring.webp
2024-03-06 20-54-59-608 - Off.webp	01597-dated-peridot-ring.webp
2024-03-06 20-55-01-958 - Off.webp	01598-dated-amethyst-ring.webp
2024-03-06 20-55-04-259 - Off.webp	01599-dated-goshenite-ring.webp
2024-03-06 20-55-08-842 - Off.webp	04299-vortex-ring-of-fending.webp
2024-03-06 20-55-20-375 - Off.webp	04404-pristine-egg-ring.webp
2024-03-06 20-55-22-708 - Off.webp	04405-midnight-egg-ring.webp
2024-03-06 20-55-25-025 - Off.webp	04406-brilliant-egg-ring.webp
2024-03-06 20-55-27-425 - Off.webp	04407-vibrant-egg-ring.webp
2024-03-06 20-55-29-692 - Off.webp	04408-chocobo-egg-ring.webp
2024-03-06 20-55-32-058 - Off.webp	04409-byregots-ring.webp
2024-03-06 20-56-07-009 - Off.webp	04424-ring-of-fidelity.webp
2024-03-06 20-56-31-942 - Off.webp	04435-goatskin-ring.webp
2024-03-06 20-57-20-842 - Off.webp	04456-toadskin-ring.webp
2024-03-06 20-58-25-442 - Off.webp	04484-mages-ring.webp
2024-03-06 20-58-27-775 - Off.webp	04485-red-coral-ring.webp
2024-03-06 20-58-57-943 - Off.webp	04499-blessed-ring.webp
2024-03-06 20-59-37-309 - Off.webp	04516-raptorskin-ring.webp
2024-03-06 20-59-39-542 - Off.webp	04517-crimson-standard-ring.webp
2024-03-06 20-59-41-926 - Off.webp	04518-tipping-scales-ring.webp
2024-03-06 20-59-44-359 - Off.webp	04519-lily-and-serpent-ring.webp
2024-03-06 21-00-07-110 - Off.webp	04529-ring-of-lasting-shelter.webp
2024-03-06 21-00-09-526 - Off.webp	04530-allagan-ring-of-striking.webp
2024-03-06 21-00-11-759 - Off.webp	04531-allagan-ring-of-aiming.webp
2024-03-06 21-00-18-576 - Off.webp	04534-allagan-ring-of-maiming.webp
2024-03-06 21-00-23-260 - Off.webp	04537-ultima-band-of-fending.webp
2024-03-06 21-00-34-793 - Off.webp	06119-master-gladiators-ring.webp
2024-03-06 21-00-37-126 - Off.webp	06120-master-pugilists-ring.webp
2024-03-06 21-00-39-526 - Off.webp	06121-master-marauders-ring.webp
2024-03-06 21-00-41-859 - Off.webp	06122-master-lancers-ring.webp
2024-03-06 21-00-44-192 - Off.webp	06123-master-archers-ring.webp
2024-03-06 21-00-46-443 - Off.webp	06124-master-conjurers-ring.webp
2024-03-06 21-00-48-760 - Off.webp	06125-master-thaumaturges-ring.webp
2024-03-06 21-00-50-893 - Off.webp	06126-master-arcanists-ring.webp
2024-03-06 21-00-53-227 - Off.webp	06127-master-carpenters-ring.webp
2024-03-06 21-00-55-593 - Off.webp	06128-master-blacksmiths-ring.webp
2024-03-06 21-00-57-943 - Off.webp	06129-master-armorers-ring.webp
2024-03-06 21-01-00-260 - Off.webp	06130-master-goldsmiths-ring.webp
2024-03-06 21-01-02-693 - Off.webp	06131-master-leatherworkers-ring.webp
2024-03-06 21-01-05-126 - Off.webp	06132-master-weavers-ring.webp
2024-03-06 21-01-07-394 - Off.webp	06133-master-alchemists-ring.webp
2024-03-06 21-01-09-660 - Off.webp	06134-master-culinarians-ring.webp
2024-03-06 21-01-11-960 - Off.webp	06135-master-miners-ring.webp
2024-03-06 21-01-14-244 - Off.webp	06136-master-botanists-ring.webp
2024-03-06 21-01-16-693 - Off.webp	06137-master-fishers-ring.webp
2024-03-06 21-01-19-043 - Off.webp	06138-meteor-survivor-ring.webp
2024-03-06 21-01-21-243 - Off.webp	06139-aetheryte-ring.webp
2024-03-06 21-01-23-576 - Off.webp	06140-gysahl-ring.webp
2024-03-06 21-02-25-859 - Off.webp	07171-high-allagan-ring-of-fending.webp
2024-03-06 21-02-30-459 - Off.webp	07197-high-allagan-ring-of-aiming.webp
2024-03-06 21-02-34-943 - Off.webp	07217-high-allagan-ring-of-casting.webp
2024-03-06 21-03-36-727 - Off.webp	08350-judgment-ring-of-fending.webp
2024-03-06 21-03-50-226 - Off.webp	08575-eternity-ring.webp
2024-03-06 21-04-15-743 - Off.webp	08952-dreadwyrm-ring-of-fending.webp
2024-03-06 21-04-27-160 - Off.webp	09035-platinum-ring-of-fending.webp
2024-03-06 21-04-29-493 - Off.webp	09051-platinum-ring-of-slaying.webp
2024-03-06 21-04-31-777 - Off.webp	09061-platinum-ring-of-aiming.webp
2024-03-06 21-04-34-060 - Off.webp	09071-platinum-ring-of-healing.webp
2024-03-06 21-04-36-310 - Off.webp	09081-platinum-ring-of-casting.webp
2024-03-06 21-04-50-443 - Off.webp	09295-the-emperors-new-ring.webp
2024-03-06 21-04-52-793 - Off.webp	09381-master-rogues-ring.webp
2024-03-06 21-04-57-260 - Off.webp	09988-varlets-ring.webp
2024-03-06 21-05-09-127 - Off.webp	10125-mad-bird-ring.webp
2024-03-06 21-05-11-395 - Off.webp	10982-agate-ring-of-fending.webp
2024-03-06 21-05-13-760 - Off.webp	10983-yeti-fang-ring-of-fending.webp
2024-03-06 21-05-16-127 - Off.webp	10984-mormorion-ring-of-fending.webp
2024-03-06 21-05-18-527 - Off.webp	10985-opal-ring-of-fending.webp
2024-03-06 21-05-20-643 - Off.webp	10986-griffin-talon-ring-of-fending.webp
2024-03-06 21-05-22-760 - Off.webp	10987-chrysolite-ring-of-fending.webp
2024-03-06 21-06-21-077 - Off.webp	11505-prototype-gordian-ring-of-fending.webp
2024-03-06 21-06-44-344 - Off.webp	11657-yasha-ring-of-fending.webp
2024-03-06 21-07-07-445 - Off.webp	11760-ardent-ring-of-fending.webp
2024-03-06 21-07-30-527 - Off.webp	12020-holy-cedar-ring.webp
2024-03-06 21-07-32-827 - Off.webp	12021-hallowed-chestnut-ring.webp
2024-03-06 21-07-35-061 - Off.webp	12022-astral-birch-ring.webp
2024-03-06 21-07-37-212 - Off.webp	12032-wyvernskin-ring.webp
2024-03-06 21-07-39-411 - Off.webp	12033-dragonskin-ring.webp
2024-03-06 21-07-41-811 - Off.webp	12034-griffin-leather-ring.webp
2024-03-06 21-07-44-011 - Off.webp	12339-battleliege-ring-of-fending.webp
2024-03-06 21-07-55-428 - Off.webp	12359-ishgardian-knights-ring.webp
2024-03-06 21-08-18-211 - Off.webp	12399-orthodox-ring-of-fending.webp
2024-03-06 21-09-04-611 - Off.webp	13206-ring-of-the-defiant-duelist.webp
2024-03-06 21-09-16-228 - Off.webp	13304-eikon-iron-ring-of-fending.webp
2024-03-06 21-10-09-545 - Off.webp	14383-primal-ring-of-fending.webp
2024-03-06 21-10-11-912 - Off.webp	14384-primal-ring-of-slaying.webp
2024-03-06 21-10-14-145 - Off.webp	14385-primal-ring-of-aiming.webp
2024-03-06 21-10-16-579 - Off.webp	14386-primal-ring-of-healing.webp
2024-03-06 21-10-32-745 - Off.webp	14569-prototype-midan-ring-of-fending.webp
2024-03-06 21-10-55-229 - Off.webp	14695-dravanian-ring-of-fending.webp
2024-03-06 21-11-06-828 - Off.webp	14813-the-twelves-ring-of-fending.webp
2024-03-06 21-11-20-946 - Off.webp	15286-diamond-lone-wolf-ring.webp
2024-03-06 21-11-23-345 - Off.webp	15290-platinum-lone-wolf-ring.webp
2024-03-06 21-11-25-579 - Off.webp	15294-gold-lone-wolf-ring.webp
2024-03-06 21-11-27-879 - Off.webp	15298-silver-lone-wolf-ring.webp
2024-03-06 21-11-30-078 - Off.webp	15302-bronze-lone-wolf-ring.webp
2024-03-06 21-11-32-312 - Off.webp	15404-berserkers-ring.webp
2024-03-06 21-11-43-795 - Off.webp	15528-ironworks-ring-of-gathering.webp
2024-03-06 21-12-38-529 - Off.webp	16460-prototype-alexandrian-ring-of-fending.webp
2024-03-06 21-13-01-712 - Off.webp	16698-scintillant-ring-of-fending.webp
2024-03-06 21-13-24-662 - Off.webp	17141-makai-ring-of-fending.webp
2024-03-06 21-13-47-562 - Off.webp	17430-filibusters-ring-of-fending.webp
2024-03-06 21-13-59-012 - Off.webp	17504-proto-ultima-ring-of-fending.webp
2024-03-06 21-15-42-013 - Off.webp	18184-ghost-barque-ring-of-fending.webp
2024-03-06 21-15-53-498 - Off.webp	18262-muudhorn-ring-of-fending.webp
2024-03-06 21-16-16-647 - Off.webp	18418-star-spinel-ring-of-fending.webp
2024-03-06 21-16-39-396 - Off.webp	18574-azurite-ring-of-fending.webp
2024-03-06 21-16-51-280 - Off.webp	18652-yanxian-ring-of-fending.webp
2024-03-06 21-17-14-230 - Off.webp	18808-xenobian-paladins-ring.webp
2024-03-06 21-17-25-847 - Off.webp	18886-arhat-ring-of-fending.webp
2024-03-06 21-17-48-697 - Off.webp	19042-palladium-band-of-fending.webp
2024-03-06 21-18-11-580 - Off.webp	19276-lost-allagan-ring-of-fending.webp
2024-03-06 21-18-34-947 - Off.webp	19432-genji-ring-of-fending.webp
2024-03-06 21-18-57-783 - Off.webp	19731-larch-ring.webp
2024-03-06 21-19-00-048 - Off.webp	19736-gyuki-leather-ring.webp
2024-03-06 21-19-02-414 - Off.webp	19741-persimmon-ring.webp
2024-03-06 21-19-04-764 - Off.webp	19746-marid-leather-ring.webp
2024-03-06 21-19-06-981 - Off.webp	19751-zelkova-ring.webp
2024-03-06 21-19-09-431 - Off.webp	19756-gazelleskin-ring.webp
2024-03-06 21-19-11-781 - Off.webp	19802-lakshmis-ring-of-fending.webp
2024-03-06 21-19-23-264 - Off.webp	20517-firecrest-ring.webp
2024-03-06 21-19-25-631 - Off.webp	20520-glass-pumpkin-ring.webp
2024-03-06 21-19-27-997 - Off.webp	20876-skallic-ring-of-fending.webp
2024-03-06 21-19-39-531 - Off.webp	21394-ryumyaku-ring-of-fending.webp
2024-03-06 21-20-02-264 - Off.webp	21566-diamond-ring-of-fending.webp
2024-03-06 21-20-48-098 - Off.webp	22356-eversharp-ring.webp
2024-03-06 21-21-06-781 - Off.webp	22996-empyrean-ring.webp
2024-03-06 21-21-25-598 - Off.webp	23467-scaevan-ring-of-fending.webp
2024-03-06 21-21-48-331 - Off.webp	23639-omega-ring-of-fending.webp
2024-03-06 21-22-22-615 - Off.webp	23841-rakshasa-ring-of-fending.webp
2024-03-06 21-22-57-415 - Off.webp	25463-ronkan-ring-of-fending.webp
2024-03-06 21-23-09-165 - Off.webp	25543-deepshadow-ring-of-fending.webp
2024-03-06 21-23-31-848 - Off.webp	25703-islewolf-ring-of-fending.webp
2024-03-06 21-23-43-499 - Off.webp	25783-lakeland-ring-of-fending.webp
2024-03-06 21-23-54-799 - Off.webp	25863-diaspore-ring-of-fending.webp
2024-03-06 21-24-06-332 - Off.webp	25943-voeburtite-ring-of-fending.webp
2024-03-06 21-24-17-832 - Off.webp	26023-lazurite-ring-of-fending.webp
2024-03-06 21-24-29-282 - Off.webp	26103-ravel-keepers-ring-of-fending.webp
2024-03-06 21-24-40-598 - Off.webp	26183-triplite-ring-of-fending.webp
2024-03-06 21-24-52-015 - Off.webp	26263-nabaath-leather-ring-of-fending.webp
2024-03-06 21-25-03-416 - Off.webp	26343-petalite-ring-of-fending.webp
2024-03-06 21-25-15-116 - Off.webp	26423-the-forgivens-ring-of-fending.webp
2024-03-06 21-25-26-648 - Off.webp	26503-facet-ring-of-fending.webp
2024-03-06 21-25-38-265 - Off.webp	26930-amaurotine-ring-of-fending.webp
2024-03-06 21-25-50-215 - Off.webp	27010-edengrace-ring-of-fending.webp
2024-03-06 21-26-13-416 - Off.webp	27205-white-oak-ring.webp
2024-03-06 21-26-15-783 - Off.webp	27210-smilodonskin-ring.webp
2024-03-06 21-26-18-116 - Off.webp	27215-manasilver-ring.webp
2024-03-06 21-26-20-316 - Off.webp	27220-white-ash-ring.webp
2024-03-06 21-26-22-649 - Off.webp	27225-dwarven-mythril-ring.webp
2024-03-06 21-26-25-049 - Off.webp	27230-lignum-vitae-ring.webp
2024-03-06 21-26-27-399 - Off.webp	27629-immaculate-ring-of-fending.webp
2024-03-06 21-27-01-783 - Off.webp	28496-whalaqee-ring.webp
2024-03-06 21-27-04-167 - Off.webp	29112-edenchoir-ring-of-fending.webp
2024-03-06 21-27-27-483 - Off.webp	29254-crystarium-ring-of-fending.webp
2024-03-06 21-27-50-816 - Off.webp	29396-anamnesis-ring-of-fending.webp
2024-03-06 21-28-02-299 - Off.webp	29479-neo-ishgardian-ring-of-fending.webp
2024-03-06 21-28-13-649 - Off.webp	30475-aesthetes-ring-of-crafting.webp
2024-03-06 21-28-15-850 - Off.webp	30480-aesthetes-ring-of-gathering.webp
2024-03-06 21-28-29-234 - Off.webp	30673-shadowless-ring-of-fending.webp
2024-03-06 21-28-40-350 - Off.webp	31807-handsaints-ring.webp
2024-03-06 21-28-44-950 - Off.webp	31888-exarchic-ring-of-fending.webp
2024-03-06 21-28-56-717 - Off.webp	32351-edenmorn-ring-of-fending.webp
2024-03-06 21-29-20-034 - Off.webp	32493-cryptlurkers-ring-of-fending.webp
2024-03-06 21-29-43-033 - Off.webp	32635-heirloom-ring-of-fending.webp
2024-03-06 21-29-54-516 - Off.webp	32643-mirage-ring.webp
2024-03-06 21-30-08-567 - Off.webp	33557-paglthan-ring-of-fending.webp
2024-03-06 21-30-20-433 - Off.webp	33650-great-serpent-of-ringa.webp
2024-03-06 21-30-22-784 - Off.webp	33652-paissa-ring.webp
2024-03-06 21-30-24-984 - Off.webp	34150-ametrine-ring-of-fending.webp
2024-03-06 21-30-36-700 - Off.webp	34225-manusya-ring-of-fending.webp
2024-03-06 21-30-47-700 - Off.webp	34300-pewter-ring-of-fending.webp
2024-03-06 21-30-59-217 - Off.webp	34375-imperial-ring-of-fending.webp
2024-03-06 21-31-10-602 - Off.webp	34450-bismuth-ring-of-fending.webp
2024-03-06 21-31-21-917 - Off.webp	34525-palaka-ring-of-fending.webp
2024-03-06 21-31-33-617 - Off.webp	34600-blue-zircon-ring-of-fending.webp
2024-03-06 21-31-45-251 - Off.webp	34675-ktiseos-ring-of-fending.webp
2024-03-06 21-31-56-834 - Off.webp	34750-star-quartz-ring-of-fending.webp
2024-03-06 21-32-07-901 - Off.webp	34825-etheirys-ring-of-fending.webp
2024-03-06 21-32-19-500 - Off.webp	34845-the-last-ring-of-fending.webp
2024-03-06 21-32-31-050 - Off.webp	34920-moonward-ring-of-fending.webp
2024-03-06 21-32-42-487 - Off.webp	34960-eternal-dark-ring-of-fending.webp
2024-03-06 21-32-54-067 - Off.webp	35015-limbo-ring-of-fending.webp
2024-03-06 21-33-05-600 - Off.webp	35090-classical-ring-of-fending.webp
2024-03-06 21-33-17-068 - Off.webp	35165-radiants-ring-of-fending.webp
2024-03-06 21-33-51-268 - Off.webp	35447-ametrine-ring-of-crafting.webp
2024-03-06 21-33-53-584 - Off.webp	35451-horse-chestnut-ring-of-gathering.webp
2024-03-06 21-33-55-867 - Off.webp	35455-ironwood-ring-of-crafting.webp
2024-03-06 21-33-58-201 - Off.webp	35459-kumbhiraskin-ring-of-gathering.webp
2024-03-06 21-34-00-467 - Off.webp	35463-integral-ring-of-crafting.webp
2024-03-06 21-34-02-768 - Off.webp	35467-ophiotauroskin-ring-of-gathering.webp
2024-03-06 21-34-18-901 - Off.webp	37223-darbar-ring-of-fending.webp
2024-03-06 21-34-30-301 - Off.webp	37812-rinascita-ring-of-fending.webp
2024-03-06 21-35-59-018 - Off.webp	37926-purgatory-ring-of-fending.webp
2024-03-06 21-36-10-468 - Off.webp	38001-lunar-envoys-ring-of-fending.webp
2024-03-06 21-36-45-185 - Off.webp	38206-troian-ring-of-fending.webp
2024-03-06 21-36-56-651 - Off.webp	38924-indagators-ring-of-crafting.webp
2024-03-06 21-36-59-002 - Off.webp	38928-indagators-ring-of-gathering.webp
2024-03-06 21-37-01-318 - Off.webp	39007-manalis-ring-of-fending.webp
2024-03-06 21-37-24-285 - Off.webp	39508-enaretos-ring.webp
2024-03-06 21-37-26-451 - Off.webp	39700-diadochos-ring-of-fending.webp
2024-03-06 21-37-38-152 - Off.webp	39859-artful-afflatus-ring.webp
2024-03-06 21-37-42-718 - Off.webp	40010-anabaseios-ring-of-fending.webp
2024-03-06 21-37-54-119 - Off.webp	40085-credendum-ring-of-fending.webp
2024-03-06 21-38-29-086 - Off.webp	40290-distance-ring-of-fending.webp
2024-03-06 21-38-40-618 - Off.webp	40354-phantasmal-sardine-ring.webp
2024-03-06 21-38-42-968 - Off.webp	40815-voidmoon-ring-of-fending.webp