2024-03-06 20-50-01-174 - Off.webp
2024-03-06 20-52-50-291 - Off.webp
2024-03-06 20-52-54-775 - Off.webp
2024-03-06 20-52-57-191 - Off.webp
2024-03-06 20-52-59-610 - Off.webp
2024-03-06 20-53-01-908 - Off.webp
2024-03-06 20-53-04-241 - Off.webp
2024-03-06 20-53-06-641 - Off.webp
2024-03-06 20-53-08-893 - Off.webp
2024-03-06 20-53-11-326 - Off.webp
2024-03-06 20-54-47-842 - Off.webp
2024-03-06 20-54-52-542 - Off.webp
2024-03-06 20-54-54-892 - Off.webp
2024-03-06 20-54-57-308 - Off.webp
2024-03-06 20-54-59-608 - Off.webp
2024-03-06 20-55-01-958 - Off.webp
2024-03-06 20-55-04-259 - Off.webp
2024-03-06 20-55-08-842 - Off.webp
2024-03-06 20-55-20-375 - Off.webp
2024-03-06 20-55-22-708 - Off.webp
2024-03-06 20-55-25-025 - Off.webp
2024-03-06 20-55-27-425 - Off.webp
2024-03-06 20-55-29-692 - Off.webp
2024-03-06 20-55-32-058 - Off.webp
2024-03-06 20-56-07-009 - Off.webp
2024-03-06 20-56-31-942 - Off.webp
2024-03-06 20-57-20-842 - Off.webp
2024-03-06 20-58-25-442 - Off.webp
2024-03-06 20-58-27-775 - Off.webp
2024-03-06 20-58-57-943 - Off.webp
2024-03-06 20-59-37-309 - Off.webp
2024-03-06 20-59-39-542 - Off.webp
2024-03-06 20-59-41-926 - Off.webp
2024-03-06 20-59-44-359 - Off.webp
2024-03-06 21-00-07-110 - Off.webp
2024-03-06 21-00-09-526 - Off.webp
2024-03-06 21-00-11-759 - Off.webp
2024-03-06 21-00-18-576 - Off.webp
2024-03-06 21-00-23-260 - Off.webp
2024-03-06 21-00-34-793 - Off.webp
2024-03-06 21-00-37-126 - Off.webp
2024-03-06 21-00-39-526 - Off.webp
2024-03-06 21-00-41-859 - Off.webp
2024-03-06 21-00-44-192 - Off.webp
2024-03-06 21-00-46-443 - Off.webp
2024-03-06 21-00-48-760 - Off.webp
2024-03-06 21-00-50-893 - Off.webp
2024-03-06 21-00-53-227 - Off.webp
2024-03-06 21-00-55-593 - Off.webp
2024-03-06 21-00-57-943 - Off.webp
2024-03-06 21-01-00-260 - Off.webp
2024-03-06 21-01-02-693 - Off.webp
2024-03-06 21-01-05-126 - Off.webp
2024-03-06 21-01-07-394 - Off.webp
2024-03-06 21-01-09-660 - Off.webp
2024-03-06 21-01-11-960 - Off.webp
2024-03-06 21-01-14-244 - Off.webp
2024-03-06 21-01-16-693 - Off.webp
2024-03-06 21-01-19-043 - Off.webp
2024-03-06 21-01-21-243 - Off.webp
2024-03-06 21-01-23-576 - Off.webp
2024-03-06 21-02-25-859 - Off.webp
2024-03-06 21-02-30-459 - Off.webp
2024-03-06 21-02-34-943 - Off.webp
2024-03-06 21-03-36-727 - Off.webp
2024-03-06 21-03-50-226 - Off.webp
2024-03-06 21-04-15-743 - Off.webp
2024-03-06 21-04-27-160 - Off.webp
2024-03-06 21-04-29-493 - Off.webp
2024-03-06 21-04-31-777 - Off.webp
2024-03-06 21-04-34-060 - Off.webp
2024-03-06 21-04-36-310 - Off.webp
2024-03-06 21-04-50-443 - Off.webp
2024-03-06 21-04-52-793 - Off.webp
2024-03-06 21-04-57-260 - Off.webp
2024-03-06 21-05-09-127 - Off.webp
2024-03-06 21-05-11-395 - Off.webp
2024-03-06 21-05-13-760 - Off.webp
2024-03-06 21-05-16-127 - Off.webp
2024-03-06 21-05-18-527 - Off.webp
2024-03-06 21-05-20-643 - Off.webp
2024-03-06 21-05-22-760 - Off.webp
2024-03-06 21-06-21-077 - Off.webp
2024-03-06 21-06-44-344 - Off.webp
2024-03-06 21-07-07-445 - Off.webp
2024-03-06 21-07-30-527 - Off.webp
2024-03-06 21-07-32-827 - Off.webp
2024-03-06 21-07-35-061 - Off.webp
2024-03-06 21-07-37-212 - Off.webp
2024-03-06 21-07-39-411 - Off.webp
2024-03-06 21-07-41-811 - Off.webp
2024-03-06 21-07-44-011 - Off.webp
2024-03-06 21-07-55-428 - Off.webp
2024-03-06 21-08-18-211 - Off.webp
2024-03-06 21-09-04-611 - Off.webp
2024-03-06 21-09-16-228 - Off.webp
2024-03-06 21-10-09-545 - Off.webp
2024-03-06 21-10-11-912 - Off.webp
2024-03-06 21-10-14-145 - Off.webp
2024-03-06 21-10-16-579 - Off.webp
2024-03-06 21-10-32-745 - Off.webp
2024-03-06 21-10-55-229 - Off.webp
2024-03-06 21-11-06-828 - Off.webp
2024-03-06 21-11-20-946 - Off.webp
2024-03-06 21-11-23-345 - Off.webp
2024-03-06 21-11-25-579 - Off.webp
2024-03-06 21-11-27-879 - Off.webp
2024-03-06 21-11-30-078 - Off.webp
2024-03-06 21-11-32-312 - Off.webp
2024-03-06 21-11-43-795 - Off.webp
2024-03-06 21-12-38-529 - Off.webp
2024-03-06 21-13-01-712 - Off.webp
2024-03-06 21-13-24-662 - Off.webp
2024-03-06 21-13-47-562 - Off.webp
2024-03-06 21-13-59-012 - Off.webp
2024-03-06 21-15-42-013 - Off.webp
2024-03-06 21-15-53-498 - Off.webp
2024-03-06 21-16-16-647 - Off.webp
2024-03-06 21-16-39-396 - Off.webp
2024-03-06 21-16-51-280 - Off.webp
2024-03-06 21-17-14-230 - Off.webp
2024-03-06 21-17-25-847 - Off.webp
2024-03-06 21-17-48-697 - Off.webp
2024-03-06 21-18-11-580 - Off.webp
2024-03-06 21-18-34-947 - Off.webp
2024-03-06 21-18-57-783 - Off.webp
2024-03-06 21-19-00-048 - Off.webp
2024-03-06 21-19-02-414 - Off.webp
2024-03-06 21-19-04-764 - Off.webp
2024-03-06 21-19-06-981 - Off.webp
2024-03-06 21-19-09-431 - Off.webp
2024-03-06 21-19-11-781 - Off.webp
2024-03-06 21-19-23-264 - Off.webp
2024-03-06 21-19-25-631 - Off.webp
2024-03-06 21-19-27-997 - Off.webp
2024-03-06 21-19-39-531 - Off.webp
2024-03-06 21-20-02-264 - Off.webp
2024-03-06 21-20-48-098 - Off.webp
2024-03-06 21-21-06-781 - Off.webp
2024-03-06 21-21-25-598 - Off.webp
2024-03-06 21-21-48-331 - Off.webp
2024-03-06 21-22-22-615 - Off.webp
2024-03-06 21-22-57-415 - Off.webp
2024-03-06 21-23-09-165 - Off.webp
2024-03-06 21-23-31-848 - Off.webp
2024-03-06 21-23-43-499 - Off.webp
2024-03-06 21-23-54-799 - Off.webp
2024-03-06 21-24-06-332 - Off.webp
2024-03-06 21-24-17-832 - Off.webp
2024-03-06 21-24-29-282 - Off.webp
2024-03-06 21-24-40-598 - Off.webp
2024-03-06 21-24-52-015 - Off.webp
2024-03-06 21-25-03-416 - Off.webp
2024-03-06 21-25-15-116 - Off.webp
2024-03-06 21-25-26-648 - Off.webp
2024-03-06 21-25-38-265 - Off.webp
2024-03-06 21-25-50-215 - Off.webp
2024-03-06 21-26-13-416 - Off.webp
2024-03-06 21-26-15-783 - Off.webp
2024-03-06 21-26-18-116 - Off.webp
2024-03-06 21-26-20-316 - Off.webp
2024-03-06 21-26-22-649 - Off.webp
2024-03-06 21-26-25-049 - Off.webp
2024-03-06 21-26-27-399 - Off.webp
2024-03-06 21-27-01-783 - Off.webp
2024-03-06 21-27-04-167 - Off.webp
2024-03-06 21-27-27-483 - Off.webp
2024-03-06 21-27-50-816 - Off.webp
2024-03-06 21-28-02-299 - Off.webp
2024-03-06 21-28-13-649 - Off.webp
2024-03-06 21-28-15-850 - Off.webp
2024-03-06 21-28-29-234 - Off.webp
2024-03-06 21-28-40-350 - Off.webp
2024-03-06 21-28-44-950 - Off.webp
2024-03-06 21-28-56-717 - Off.webp
2024-03-06 21-29-20-034 - Off.webp
2024-03-06 21-29-43-033 - Off.webp
2024-03-06 21-29-54-516 - Off.webp
2024-03-06 21-30-08-567 - Off.webp
2024-03-06 21-30-20-433 - Off.webp
2024-03-06 21-30-22-784 - Off.webp
2024-03-06 21-30-24-984 - Off.webp
2024-03-06 21-30-36-700 - Off.webp
2024-03-06 21-30-47-700 - Off.webp
2024-03-06 21-30-59-217 - Off.webp
2024-03-06 21-31-10-602 - Off.webp
2024-03-06 21-31-21-917 - Off.webp
2024-03-06 21-31-33-617 - Off.webp
2024-03-06 21-31-45-251 - Off.webp
2024-03-06 21-31-56-834 - Off.webp
2024-03-06 21-32-07-901 - Off.webp
2024-03-06 21-32-19-500 - Off.webp
2024-03-06 21-32-31-050 - Off.webp
2024-03-06 21-32-42-487 - Off.webp
2024-03-06 21-32-54-067 - Off.webp
2024-03-06 21-33-05-600 - Off.webp
2024-03-06 21-33-17-068 - Off.webp
2024-03-06 21-33-51-268 - Off.webp
2024-03-06 21-33-53-584 - Off.webp
2024-03-06 21-33-55-867 - Off.webp
2024-03-06 21-33-58-201 - Off.webp
2024-03-06 21-34-00-467 - Off.webp
2024-03-06 21-34-02-768 - Off.webp
2024-03-06 21-34-18-901 - Off.webp
2024-03-06 21-34-30-301 - Off.webp
2024-03-06 21-35-59-018 - Off.webp
2024-03-06 21-36-10-468 - Off.webp
2024-03-06 21-36-45-185 - Off.webp
2024-03-06 21-36-56-651 - Off.webp
2024-03-06 21-36-59-002 - Off.webp
2024-03-06 21-37-01-318 - Off.webp
2024-03-06 21-37-24-285 - Off.webp
2024-03-06 21-37-26-451 - Off.webp
2024-03-06 21-37-38-152 - Off.webp
2024-03-06 21-37-42-718 - Off.webp
2024-03-06 21-37-54-119 - Off.webp
2024-03-06 21-38-29-086 - Off.webp
2024-03-06 21-38-40-618 - Off.webp
2024-03-06 21-38-42-968 - Off.webp
